1,1,lake_04.png,2,bait_01.png,bait_01_full.png,bait_01_empty.png,bait_02.png,bait_02_full.png,bait_02_empty.png,bait_03.png,bait_03_full.png,bait_03_empty.png,bait_04.png,bait_04_full.png,bait_04_empty.png,bait_05.png,bait_05_full.png,bait_05_empty.png,bait_06.png,bait_06_full.png,bait_06_empty.png
5,0.2,0.8,0.2,0.8,0.2,0.8
20,0.2,0.8,0.2,0.8,0.2,0.8
20,0.4,0.6,0.4,0.6,0.4,0.6
20,0.6,0.4,0.6,0.4,0.6,0.4
20,0.8,0.2,0.8,0.2,0.8,0.2